>>>  VASP 5.4.4 with BEEF-vdw and vtst
--------------------------------------------------------
>>>  Job information
     SLURM_JOBID=97001
     SLURM_JOB_NODELIST=cpn-u25-28
     SLURM_NNODES=1
     SLURMTMPDIR=/scratch/97001
     working directory = /projects/academic/ericwalk/VASP/DRM/C_ads/freq
--------------------------------------------------------
>>>  Module information
The Intel compilers are in your path. This is adequate for compiling and
running most codes. Source
/util/academic/intel/17.0/compilers_and_libraries_2017/linux/bin/compilervars.sh
for more features. 
 The MKL Libraries are in your library path. This is adequate for compiling and
running most codes. Source $MKL/bin/mklvars.sh" for more features. 
 Intel-MPI is in your path. This is adequate for compiling and running most
codes. Source the
/util/academic/intel/17.0/compilers_and_libraries_2017/linux/mpi/intel64/bin/mpivars.sh
file for more features. 

Currently Loaded Modules:
  1) intel/17.0   2) mkl/2017.0.1   3) intel-mpi/2017.0.1

 

--------------------------------------------------------
>>>  Running Configuration
NPROCS=16
--------------------------------------------------------
>>>  Job started at Sun Sep  8 11:26:51 EDT 2019
--------------------------------------------------------
 running on   16 total cores
 distrk:  each k-point on   16 cores,    1 groups
 distr:  one band on    4 cores,    4 groups
 using from now: INCAR     
 vasp.5.4.4.18Apr17-6-g9f103f2a35 (build Dec 31 2018 11:41:54) complex          
  
 POSCAR found type information on POSCAR  Rh C 
 POSCAR found :  2 types and      49 ions
 scaLAPACK will be used

     **************************************************************************
     Initializing libbeef V0.1.3 with the BEEF-vdW functional.
     Citation: Wellendorff et al., PRB 85, 235149 (2012).
     **************************************************************************


 ----------------------------------------------------------------------------- 
|                                                                             |
|  ADVICE TO THIS USER RUNNING 'VASP/VAMP'   (HEAR YOUR MASTER'S VOICE ...):  |
|                                                                             |
|      You have switched on vdW-DFT.                                          |
|      This routine was written and supplied by Jiri Klimes.                  |
|      We recommed that you carefully read and cite the following             |
|      publication                                                            |
|      J. Klimes, D.R. Bowler, A. Michelides                                  |
|        J. Phys.: Cond Matt. 22 022201 (2010)                                |
|      J. Klimes, D.R. Bowler, A. Michelides                                  |
|        Phys. Rev. B. 83, 195131 (2011)                                      |
|      and references therein.                                                |
|                                                                             |
 ----------------------------------------------------------------------------- 

 WARNING: type information on POSCAR and POTCAR are incompatible
 POTCAR overwrites the type information in POSCAR
 typ   2 type information:  C  O 

 ----------------------------------------------------------------------------- 
|                                                                             |
|  ADVICE TO THIS USER RUNNING 'VASP/VAMP'   (HEAR YOUR MASTER'S VOICE ...):  |
|                                                                             |
|      You enforced a specific xc-type in the INCAR file,                     |
|      a different type was found on the POTCAR file                          |
|          I HOPE YOU KNOW, WHAT YOU ARE  DOING                               |
|                                                                             |
 ----------------------------------------------------------------------------- 

 LDA part: xc-table for Pade appr. of Perdew
 POSCAR found type information on POSCAR  Rh C 
 POSCAR found :  2 types and      49 ions
 POSCAR, INCAR and KPOINTS ok, starting setup
 FFT: planning ...
 WAVECAR not read
 WARNING: random wavefunctions but no delay for mixing, default for NELMDL
 entering main loop
       N       E                     dE             d eps       ncg     rms          rms(c)
Total vdW correction in eV:     78.1024182
DAV:   1     0.328520579068E+04    0.32852E+04   -0.15545E+05   536   0.111E+03
DAV:   2     0.335682032134E+02   -0.32516E+04   -0.30596E+04   584   0.356E+02
DAV:   3    -0.232747560213E+03   -0.26632E+03   -0.23864E+03   624   0.100E+02
DAV:   4    -0.254426228007E+03   -0.21679E+02   -0.19853E+02   848   0.240E+01
DAV:   5    -0.255721805157E+03   -0.12956E+01   -0.11891E+01   776   0.502E+00    0.217E+01
Total vdW correction in eV:     75.6858649
DAV:   6    -0.273471736709E+03   -0.17750E+02   -0.84980E+01   816   0.375E+01    0.456E+01
Total vdW correction in eV:     75.5207034
DAV:   7    -0.249896433039E+03    0.23575E+02   -0.65067E+01   864   0.475E+01    0.230E+01
Total vdW correction in eV:     75.0954401
DAV:   8    -0.312881332603E+03   -0.62985E+02   -0.58850E+01  1016   0.524E+01    0.650E+01
Total vdW correction in eV:     74.8746962
DAV:   9    -0.249642320938E+03    0.63239E+02   -0.69642E+01  1000   0.455E+01    0.245E+01
Total vdW correction in eV:     74.7435829
DAV:  10    -0.244163401632E+03    0.54789E+01   -0.14037E+01   984   0.167E+01    0.119E+01
Total vdW correction in eV:     74.6368460
DAV:  11    -0.243486241142E+03    0.67716E+00   -0.57807E+00   840   0.105E+01    0.995E+00
Total vdW correction in eV:     74.5614941
DAV:  12    -0.242712801639E+03    0.77344E+00   -0.30517E+00   872   0.721E+00    0.569E+00
Total vdW correction in eV:     74.5356386
DAV:  13    -0.242535416536E+03    0.17739E+00   -0.10612E+00   808   0.373E+00    0.376E+00
Total vdW correction in eV:     74.4987985
DAV:  14    -0.242470171401E+03    0.65245E-01   -0.38922E-01   776   0.248E+00    0.322E+00
Total vdW correction in eV:     74.4689522
DAV:  15    -0.242442034154E+03    0.28137E-01   -0.26956E-01   840   0.267E+00    0.316E+00
Total vdW correction in eV:     74.4067157
DAV:  16    -0.242502626944E+03   -0.60593E-01   -0.58078E-01   840   0.339E+00    0.452E+00
Total vdW correction in eV:     74.3813805
DAV:  17    -0.242326316130E+03    0.17631E+00   -0.41763E-01   848   0.308E+00    0.209E+00
Total vdW correction in eV:     74.3774502
DAV:  18    -0.242294671485E+03    0.31645E-01   -0.15629E-01   832   0.158E+00    0.150E+00
Total vdW correction in eV:     74.3795418
DAV:  19    -0.242281447682E+03    0.13224E-01   -0.70022E-02   808   0.106E+00    0.126E+00
Total vdW correction in eV:     74.3810817
DAV:  20    -0.242262891810E+03    0.18556E-01   -0.40253E-02   848   0.849E-01    0.664E-01
Total vdW correction in eV:     74.3834087
DAV:  21    -0.242255828738E+03    0.70631E-02   -0.14270E-02   808   0.537E-01    0.420E-01
Total vdW correction in eV:     74.3892873
DAV:  22    -0.242250077149E+03    0.57516E-02   -0.11046E-02   800   0.461E-01    0.507E-01
Total vdW correction in eV:     74.3941712
DAV:  23    -0.242245927454E+03    0.41497E-02   -0.62945E-03   840   0.407E-01    0.244E-01
Total vdW correction in eV:     74.3974975
DAV:  24    -0.242245045809E+03    0.88164E-03   -0.28285E-03   784   0.266E-01    0.268E-01
Total vdW correction in eV:     74.4034439
DAV:  25    -0.242242860751E+03    0.21851E-02   -0.19647E-03   752   0.224E-01    0.194E-01
Total vdW correction in eV:     74.4057245
DAV:  26    -0.242241290074E+03    0.15707E-02   -0.77614E-04   720   0.150E-01    0.967E-02
Total vdW correction in eV:     74.4093271
DAV:  27    -0.242238520167E+03    0.27699E-02   -0.58551E-04   736   0.111E-01    0.133E-01
Total vdW correction in eV:     74.4159311
DAV:  28    -0.242233572424E+03    0.49477E-02   -0.10084E-03   632   0.120E-01    0.107E-01
Total vdW correction in eV:     74.4182530
DAV:  29    -0.242232958106E+03    0.61432E-03   -0.42511E-04   640   0.887E-02    0.797E-02
Total vdW correction in eV:     74.4211334
DAV:  30    -0.242233953315E+03   -0.99521E-03   -0.64452E-04   616   0.713E-02    0.588E-02
Total vdW correction in eV:     74.4223698
DAV:  31    -0.242235027391E+03   -0.10741E-02   -0.36353E-04   616   0.590E-02    0.313E-02
Total vdW correction in eV:     74.4232392
DAV:  32    -0.242236093884E+03   -0.10665E-02   -0.33663E-04   584   0.501E-02    0.516E-02
Total vdW correction in eV:     74.4238306
DAV:  33    -0.242237123669E+03   -0.10298E-02   -0.37938E-04   640   0.481E-02    0.325E-02
Total vdW correction in eV:     74.4238036
DAV:  34    -0.242237441755E+03   -0.31809E-03   -0.67477E-05   720   0.263E-02    0.213E-02
Total vdW correction in eV:     74.4234681
DAV:  35    -0.242238215343E+03   -0.77359E-03   -0.12873E-04   640   0.235E-02    0.206E-02
Total vdW correction in eV:     74.4232453
DAV:  36    -0.242238531247E+03   -0.31590E-03   -0.24799E-05   696   0.162E-02    0.193E-02
Total vdW correction in eV:     74.4229453
DAV:  37    -0.242238954467E+03   -0.42322E-03   -0.12785E-05   648   0.123E-02    0.165E-02
Total vdW correction in eV:     74.4226088
DAV:  38    -0.242239289643E+03   -0.33518E-03   -0.99457E-06   608   0.110E-02    0.808E-03
Total vdW correction in eV:     74.4224007
DAV:  39    -0.242239442402E+03   -0.15276E-03   -0.46250E-06   664   0.749E-03    0.877E-03
Total vdW correction in eV:     74.4220837
DAV:  40    -0.242239619477E+03   -0.17707E-03   -0.68631E-06   600   0.692E-03    0.750E-03
Total vdW correction in eV:     74.4219417
DAV:  41    -0.242239680419E+03   -0.60943E-04   -0.21707E-06   648   0.509E-03    0.515E-03
Total vdW correction in eV:     74.4216772
DAV:  42    -0.242239780758E+03   -0.10034E-03   -0.55176E-06   552   0.455E-03    0.376E-03
Total vdW correction in eV:     74.4215451
DAV:  43    -0.242239820300E+03   -0.39542E-04   -0.19404E-06   664   0.379E-03    0.283E-03
Total vdW correction in eV:     74.4214713
DAV:  44    -0.242239846326E+03   -0.26026E-04   -0.10013E-06   664   0.251E-03    0.259E-03
Total vdW correction in eV:     74.4213859
DAV:  45    -0.242239874550E+03   -0.28223E-04   -0.12555E-06   640   0.224E-03    0.131E-03
Total vdW correction in eV:     74.4213648
DAV:  46    -0.242239882019E+03   -0.74691E-05   -0.16712E-07   768   0.128E-03    0.109E-03
Total vdW correction in eV:     74.4213242
DAV:  47    -0.242239896843E+03   -0.14824E-04   -0.34292E-07   632   0.114E-03    0.101E-03
Total vdW correction in eV:     74.4213135
DAV:  48    -0.242239901176E+03   -0.43329E-05   -0.59261E-08   728   0.838E-04    0.508E-04
Total vdW correction in eV:     74.4213060
DAV:  49    -0.242239907411E+03   -0.62347E-05   -0.72797E-08   640   0.601E-04    0.661E-04
Total vdW correction in eV:     74.4213024
DAV:  50    -0.242239910465E+03   -0.30540E-05   -0.25715E-08   664   0.540E-04    0.381E-04
Total vdW correction in eV:     74.4213005
DAV:  51    -0.242239912791E+03   -0.23264E-05   -0.11970E-08   568   0.404E-04    0.502E-04
Total vdW correction in eV:     74.4212977
DAV:  52    -0.242239915888E+03   -0.30972E-05   -0.22675E-08   576   0.407E-04    0.350E-04
Total vdW correction in eV:     74.4212966
DAV:  53    -0.242239917078E+03   -0.11897E-05   -0.35794E-09   488   0.271E-04    0.352E-04
Total vdW correction in eV:     74.4212952
DAV:  54    -0.242239918132E+03   -0.10542E-05   -0.12711E-09   416   0.232E-04    0.299E-04
Total vdW correction in eV:     74.4212940
DAV:  55    -0.242239918442E+03   -0.31000E-06    0.86601E-10   304   0.149E-04    0.295E-04
Total vdW correction in eV:     74.4212910
DAV:  56    -0.242239918790E+03   -0.34807E-06    0.33296E-10   344   0.150E-04    0.317E-04
Total vdW correction in eV:     74.4212901
DAV:  57    -0.242239918957E+03   -0.16675E-06    0.58336E-10   320   0.118E-04    0.262E-04
Total vdW correction in eV:     74.4212880
DAV:  58    -0.242239919071E+03   -0.11443E-06    0.46010E-10   384   0.763E-05    0.266E-04
Total vdW correction in eV:     74.4212869
DAV:  59    -0.242239919122E+03   -0.50415E-07    0.11892E-09   328   0.684E-05    0.261E-04
Total vdW correction in eV:     74.4212854
DAV:  60    -0.242239919155E+03   -0.33204E-07    0.13895E-09   304   0.428E-05    0.259E-04
Total vdW correction in eV:     74.4212847
DAV:  61    -0.242239919178E+03   -0.23490E-07    0.14242E-09   296   0.391E-05    0.258E-04
Total vdW correction in eV:     74.4212840
DAV:  62    -0.242239919177E+03    0.10841E-08    0.14670E-09   304   0.305E-05
Total vdW correction in eV:     74.4212832
Total vdW correction in eV:     74.4212836
   1 F= -.24223992E+03 E0= -.24214814E+03  d E =-.242240E+03
quench:  g(F)=  0.000E+00 g(S)=  0.000E+00 dE (1.order)= 0.000E+00
 bond charge predicted
       N       E                     dE             d eps       ncg     rms          rms(c)
Total vdW correction in eV:     74.4212838
DAV:   1    -0.242240000479E+03   -0.81300E-04   -0.55489E-03   528   0.975E-02    0.119E-02
Total vdW correction in eV:     74.4212352
DAV:   2    -0.242240019804E+03   -0.19325E-04   -0.13854E-04   688   0.285E-02    0.288E-02
Total vdW correction in eV:     74.4212428
DAV:   3    -0.242240029506E+03   -0.97022E-05   -0.31552E-05   936   0.330E-02    0.505E-02
Total vdW correction in eV:     74.4212451
DAV:   4    -0.242240015553E+03    0.13953E-04   -0.16909E-05   928   0.272E-02    0.229E-02
Total vdW correction in eV:     74.4212441
DAV:   5    -0.242240013769E+03    0.17840E-05   -0.14876E-05   952   0.142E-02    0.173E-02
Total vdW correction in eV:     74.4212446
DAV:   6    -0.242240011937E+03    0.18316E-05   -0.96367E-06   976   0.991E-03    0.867E-03
Total vdW correction in eV:     74.4212430
DAV:   7    -0.242240011777E+03    0.15999E-06   -0.33056E-06   968   0.678E-03    0.627E-03
Total vdW correction in eV:     74.4212453
DAV:   8    -0.242240012562E+03   -0.78437E-06   -0.31592E-06   944   0.757E-03    0.117E-02
Total vdW correction in eV:     74.4212405
DAV:   9    -0.242240011805E+03    0.75665E-06   -0.21911E-06   976   0.693E-03    0.425E-03
Total vdW correction in eV:     74.4212416
DAV:  10    -0.242240011603E+03    0.20190E-06   -0.45335E-07   856   0.312E-03    0.201E-03
Total vdW correction in eV:     74.4212409
DAV:  11    -0.242240011625E+03   -0.22068E-07   -0.12412E-07   808   0.168E-03    0.144E-03
Total vdW correction in eV:     74.4212414
DAV:  12    -0.242240011605E+03    0.20267E-07   -0.69599E-08   880   0.128E-03    0.171E-03
Total vdW correction in eV:     74.4212409
DAV:  13    -0.242240011607E+03   -0.22046E-08   -0.44285E-08   840   0.978E-04
Total vdW correction in eV:     74.4212424
Total vdW correction in eV:     74.4212410
   2 F= -.24224001E+03 E0= -.24214823E+03  d E =-.924297E-04
quench:  g(F)=  0.000E+00 g(S)=  0.000E+00 dE (1.order)= 0.000E+00
 bond charge predicted
       N       E                     dE             d eps       ncg     rms          rms(c)
Total vdW correction in eV:     74.4212400
DAV:   1    -0.242239276845E+03    0.73476E-03   -0.11121E-02   528   0.139E-01    0.158E-02
Total vdW correction in eV:     74.4213182
DAV:   2    -0.242239313131E+03   -0.36286E-04   -0.23686E-04   712   0.393E-02    0.421E-02
Total vdW correction in eV:     74.4213183
DAV:   3    -0.242239346033E+03   -0.32902E-04   -0.52427E-05   952   0.491E-02    0.837E-02
Total vdW correction in eV:     74.4213171
DAV:   4    -0.242239300526E+03    0.45507E-04   -0.41713E-05   960   0.407E-02    0.241E-02
Total vdW correction in eV:     74.4213153
DAV:   5    -0.242239300664E+03   -0.13729E-06   -0.16309E-05   896   0.181E-02    0.232E-02
Total vdW correction in eV:     74.4213314
DAV:   6    -0.242239296493E+03    0.41708E-05   -0.10590E-05   968   0.148E-02    0.126E-02
Total vdW correction in eV:     74.4213267
DAV:   7    -0.242239296457E+03    0.35765E-07   -0.49853E-06   952   0.101E-02    0.101E-02
Total vdW correction in eV:     74.4213329
DAV:   8    -0.242239297265E+03   -0.80809E-06   -0.48798E-06   960   0.103E-02    0.136E-02
Total vdW correction in eV:     74.4213325
DAV:   9    -0.242239295865E+03    0.13999E-05   -0.32666E-06   976   0.885E-03    0.476E-03
Total vdW correction in eV:     74.4213324
DAV:  10    -0.242239295737E+03    0.12778E-06   -0.80782E-07   840   0.394E-03    0.267E-03
Total vdW correction in eV:     74.4213331
DAV:  11    -0.242239295702E+03    0.35860E-07   -0.46399E-07   832   0.247E-03    0.284E-03
Total vdW correction in eV:     74.4213329
DAV:  12    -0.242239295675E+03    0.26994E-07   -0.30622E-07   912   0.187E-03    0.177E-03
Total vdW correction in eV:     74.4213332
DAV:  13    -0.242239295648E+03    0.27037E-07   -0.88231E-08   904   0.118E-03    0.102E-03
Total vdW correction in eV:     74.4213332
DAV:  14    -0.242239295650E+03   -0.19172E-08   -0.38517E-08   832   0.902E-04
Total vdW correction in eV:     74.4213338
Total vdW correction in eV:     74.4213332
   3 F= -.24223930E+03 E0= -.24214753E+03  d E =0.715958E-03
quench:  g(F)=  0.000E+00 g(S)=  0.000E+00 dE (1.order)= 0.000E+00
 bond charge predicted
       N       E                     dE             d eps       ncg     rms          rms(c)
Total vdW correction in eV:     74.4216418
DAV:   1    -0.242241271823E+03   -0.19762E-02   -0.11132E-02   528   0.141E-01    0.164E-02
Total vdW correction in eV:     74.4215754
DAV:   2    -0.242241299829E+03   -0.28006E-04   -0.24152E-04   656   0.348E-02    0.367E-02
Total vdW correction in eV:     74.4215804
DAV:   3    -0.242241328508E+03   -0.28679E-04   -0.55276E-05   944   0.445E-02    0.755E-02
Total vdW correction in eV:     74.4215853
DAV:   4    -0.242241297615E+03    0.30893E-04   -0.39682E-05   920   0.407E-02    0.358E-02
Total vdW correction in eV:     74.4215973
DAV:   5    -0.242241293407E+03    0.42076E-05   -0.29976E-05   952   0.222E-02    0.264E-02
Total vdW correction in eV:     74.4215989
DAV:   6    -0.242241288783E+03    0.46244E-05   -0.19046E-05   984   0.150E-02    0.122E-02
Total vdW correction in eV:     74.4216044
DAV:   7    -0.242241289054E+03   -0.27109E-06   -0.74179E-06   960   0.107E-02    0.114E-02
Total vdW correction in eV:     74.4216068
DAV:   8    -0.242241290727E+03   -0.16731E-05   -0.64759E-06   944   0.112E-02    0.137E-02
Total vdW correction in eV:     74.4216122
DAV:   9    -0.242241289172E+03    0.15551E-05   -0.36956E-06   968   0.936E-03    0.510E-03
Total vdW correction in eV:     74.4216107
DAV:  10    -0.242241289123E+03    0.48931E-07   -0.70186E-07   824   0.396E-03    0.279E-03
Total vdW correction in eV:     74.4216119
DAV:  11    -0.242241289061E+03    0.61540E-07   -0.27193E-07   832   0.250E-03    0.289E-03
Total vdW correction in eV:     74.4216101
DAV:  12    -0.242241289075E+03   -0.14403E-07   -0.17089E-07   904   0.193E-03    0.185E-03
Total vdW correction in eV:     74.4216099
DAV:  13    -0.242241289044E+03    0.31712E-07   -0.65442E-08   928   0.131E-03    0.995E-04
Total vdW correction in eV:     74.4216089
DAV:  14    -0.242241289070E+03   -0.25746E-07   -0.35476E-08   824   0.100E-03    0.116E-03
Total vdW correction in eV:     74.4216080
DAV:  15    -0.242241289084E+03   -0.14632E-07   -0.25577E-08   776   0.802E-04    0.707E-04
Total vdW correction in eV:     74.4216078
DAV:  16    -0.242241289085E+03   -0.48749E-09   -0.11924E-08   592   0.515E-04
Total vdW correction in eV:     74.4216080
Total vdW correction in eV:     74.4216074
   4 F= -.24224129E+03 E0= -.24214950E+03  d E =-.199344E-02
quench:  g(F)=  0.000E+00 g(S)=  0.000E+00 dE (1.order)= 0.000E+00
--------------------------------------------------------
>>>  Job finished at Sun Sep  8 12:09:55 EDT 2019
