Id,element
0,Rh
1,Rh
2,Rh
3,Rh
4,Rh
5,Rh
6,Rh
7,Rh
8,Rh
9,Rh
10,Rh
11,Rh
12,Rh
13,Rh
14,Rh
15,Rh
16,Rh
17,Rh
18,Rh
19,Rh
20,Rh
21,Rh
22,Rh
23,Rh
24,Rh
25,Rh
26,Rh
27,Rh
28,Rh
29,Rh
30,Rh
31,Rh
32,Rh
33,Rh
34,Rh
35,Rh
36,Rh
37,Rh
38,Rh
39,Rh
40,Rh
41,Rh
42,Rh
43,Rh
44,Rh
45,Rh
46,Rh
47,Rh
48,C
49,O
50,O
