Id,element
0,Rh
1,Rh
2,Rh
3,Rh
4,Rh
5,Rh
6,Rh
7,Rh
8,Rh
9,Rh
10,Rh
11,Rh
12,Rh
13,Rh
14,Rh
15,Rh
16,Rh
17,Rh
18,Rh
19,Rh
20,Rh
21,Rh
22,Rh
23,Rh
24,Rh
25,Rh
26,Rh
27,Rh
28,Rh
29,Rh
30,Rh
31,Rh
32,Rh
33,Rh
34,Rh
35,Rh
36,Rh
37,Rh
38,Rh
39,Rh
40,Rh
41,Rh
42,Rh
43,Rh
44,Rh
45,Rh
46,Rh
47,Rh
48,C
49,O
50,O
51,C
52,H
53,H
54,H
55,H
56,Rh
57,Rh
58,Rh
59,Rh
60,Rh
61,Rh
62,Rh
63,Rh
64,Rh
65,Rh
66,Rh
67,Rh
68,Rh
69,Rh
70,Rh
71,Rh
72,Rh
73,Rh
74,Rh
75,Rh
76,Rh
77,Rh
78,Rh
79,Rh
80,Rh
81,Rh
82,Rh
83,Rh
84,Rh
85,Rh
86,Rh
87,Rh
88,Rh
89,Rh
90,Rh
91,Rh
92,Rh
93,Rh
94,Rh
95,Rh
96,Rh
97,Rh
98,Rh
99,Rh
100,Rh
101,Rh
102,Rh
103,Rh
104,C
105,O
106,O
107,Rh
108,Rh
109,Rh
110,Rh
111,Rh
112,Rh
113,Rh
114,Rh
115,Rh
116,Rh
117,Rh
118,Rh
119,Rh
120,Rh
121,Rh
122,Rh
123,Rh
124,Rh
125,Rh
126,Rh
127,Rh
128,Rh
129,Rh
130,Rh
131,Rh
132,Rh
133,Rh
134,Rh
135,Rh
136,Rh
137,Rh
138,Rh
139,Rh
140,Rh
141,Rh
142,Rh
143,Rh
144,Rh
145,Rh
146,Rh
147,Rh
148,Rh
149,Rh
150,Rh
151,Rh
152,Rh
153,Rh
154,Rh
155,C
156,H
157,H
158,H
159,Rh
160,Rh
161,Rh
162,Rh
163,Rh
164,Rh
165,Rh
166,Rh
167,Rh
168,Rh
169,Rh
170,Rh
171,Rh
172,Rh
173,Rh
174,Rh
175,Rh
176,Rh
177,Rh
178,Rh
179,Rh
180,Rh
181,Rh
182,Rh
183,Rh
184,Rh
185,Rh
186,Rh
187,Rh
188,Rh
189,Rh
190,Rh
191,Rh
192,Rh
193,Rh
194,Rh
195,Rh
196,Rh
197,Rh
198,Rh
199,Rh
200,Rh
201,Rh
202,Rh
203,Rh
204,Rh
205,Rh
206,Rh
207,H
208,Rh
209,Rh
210,Rh
211,Rh
212,Rh
213,Rh
214,Rh
215,Rh
216,Rh
217,Rh
218,Rh
219,Rh
220,Rh
221,Rh
222,Rh
223,Rh
224,Rh
225,Rh
226,Rh
227,Rh
228,Rh
229,Rh
230,Rh
231,Rh
232,Rh
233,Rh
234,Rh
235,Rh
236,Rh
237,Rh
238,Rh
239,Rh
240,Rh
241,Rh
242,Rh
243,Rh
244,Rh
245,Rh
246,Rh
247,Rh
248,Rh
249,Rh
250,Rh
251,Rh
252,Rh
253,Rh
254,Rh
255,Rh
256,C
257,H
258,H
259,H
260,Rh
261,Rh
262,Rh
263,Rh
264,Rh
265,Rh
266,Rh
267,Rh
268,Rh
269,Rh
270,Rh
271,Rh
272,Rh
273,Rh
274,Rh
275,Rh
276,Rh
277,Rh
278,Rh
279,Rh
280,Rh
281,Rh
282,Rh
283,Rh
284,Rh
285,Rh
286,Rh
287,Rh
288,Rh
289,Rh
290,Rh
291,Rh
292,Rh
293,Rh
294,Rh
295,Rh
296,Rh
297,Rh
298,Rh
299,Rh
300,Rh
301,Rh
302,Rh
303,Rh
304,Rh
305,Rh
306,Rh
307,Rh
308,C
309,H
310,H
311,H
312,Rh
313,Rh
314,Rh
315,Rh
316,Rh
317,Rh
318,Rh
319,Rh
320,Rh
321,Rh
322,Rh
323,Rh
324,Rh
325,Rh
326,Rh
327,Rh
328,Rh
329,Rh
330,Rh
331,Rh
332,Rh
333,Rh
334,Rh
335,Rh
336,Rh
337,Rh
338,Rh
339,Rh
340,Rh
341,Rh
342,Rh
343,Rh
344,Rh
345,Rh
346,Rh
347,Rh
348,Rh
349,Rh
350,Rh
351,Rh
352,Rh
353,Rh
354,Rh
355,Rh
356,Rh
357,Rh
358,Rh
359,Rh
360,C
361,Rh
362,Rh
363,Rh
364,Rh
365,Rh
366,Rh
367,Rh
368,Rh
369,Rh
370,Rh
371,Rh
372,Rh
373,Rh
374,Rh
375,Rh
376,Rh
377,Rh
378,Rh
379,Rh
380,Rh
381,Rh
382,Rh
383,Rh
384,Rh
385,Rh
386,Rh
387,Rh
388,Rh
389,Rh
390,Rh
391,Rh
392,Rh
393,Rh
394,Rh
395,Rh
396,Rh
397,Rh
398,Rh
399,Rh
400,Rh
401,Rh
402,Rh
403,Rh
404,Rh
405,Rh
406,Rh
407,Rh
408,Rh
409,C
410,O
