>>>  VASP 5.4.4 with BEEF-vdw and vtst
--------------------------------------------------------
>>>  Job information
     SLURM_JOBID=273925
     SLURM_JOB_NODELIST=cpn-u24-26
     SLURM_NNODES=1
     SLURMTMPDIR=/scratch/273925
     working directory = /projects/academic/ericwalk/VASP/DRM/CO_vacuum
--------------------------------------------------------
>>>  Module information
The Intel compilers are in your path. This is adequate for compiling and
running most codes. Source
/util/academic/intel/17.0/compilers_and_libraries_2017/linux/bin/compilervars.sh
for more features. 
 The MKL Libraries are in your library path. This is adequate for compiling and
running most codes. Source $MKL/bin/mklvars.sh" for more features. 
 Intel-MPI is in your path. This is adequate for compiling and running most
codes. Source the
/util/academic/intel/17.0/compilers_and_libraries_2017/linux/mpi/intel64/bin/mpivars.sh
file for more features. 

Currently Loaded Modules:
  1) intel/17.0   2) mkl/2017.0.1   3) intel-mpi/2017.0.1

 

--------------------------------------------------------
>>>  Running Configuration
NPROCS=16
--------------------------------------------------------
>>>  Job started at Thu Oct 24 15:23:16 EDT 2019
--------------------------------------------------------
 running on   16 total cores
 distrk:  each k-point on   16 cores,    1 groups
 distr:  one band on    4 cores,    4 groups
 using from now: INCAR     
 vasp.5.4.4.18Apr17-6-g9f103f2a35 (build Dec 31 2018 11:41:54) complex          
  
 POSCAR found type information on POSCAR  C  O 
 POSCAR found :  2 types and       2 ions
 scaLAPACK will be used

     **************************************************************************
     Initializing libbeef V0.1.3 with the BEEF-vdW functional.
     Citation: Wellendorff et al., PRB 85, 235149 (2012).
     **************************************************************************


 ----------------------------------------------------------------------------- 
|                                                                             |
|  ADVICE TO THIS USER RUNNING 'VASP/VAMP'   (HEAR YOUR MASTER'S VOICE ...):  |
|                                                                             |
|      You have switched on vdW-DFT.                                          |
|      This routine was written and supplied by Jiri Klimes.                  |
|      We recommed that you carefully read and cite the following             |
|      publication                                                            |
|      J. Klimes, D.R. Bowler, A. Michelides                                  |
|        J. Phys.: Cond Matt. 22 022201 (2010)                                |
|      J. Klimes, D.R. Bowler, A. Michelides                                  |
|        Phys. Rev. B. 83, 195131 (2011)                                      |
|      and references therein.                                                |
|                                                                             |
 ----------------------------------------------------------------------------- 


 ----------------------------------------------------------------------------- 
|                                                                             |
|  ADVICE TO THIS USER RUNNING 'VASP/VAMP'   (HEAR YOUR MASTER'S VOICE ...):  |
|                                                                             |
|      You have a (more or less) 'small supercell' and for smaller cells      |
|      it is recommended  to use the reciprocal-space projection scheme!      |
|      The real space optimization is not  efficient for small cells and it   |
|      is also less accurate ...                                              |
|      Therefore set LREAL=.FALSE. in the  INCAR file                         |
|                                                                             |
 ----------------------------------------------------------------------------- 


 ----------------------------------------------------------------------------- 
|                                                                             |
|  ADVICE TO THIS USER RUNNING 'VASP/VAMP'   (HEAR YOUR MASTER'S VOICE ...):  |
|                                                                             |
|      You enforced a specific xc-type in the INCAR file,                     |
|      a different type was found on the POTCAR file                          |
|          I HOPE YOU KNOW, WHAT YOU ARE  DOING                               |
|                                                                             |
 ----------------------------------------------------------------------------- 

 LDA part: xc-table for Pade appr. of Perdew
 POSCAR found type information on POSCAR  C  O 
 POSCAR found :  2 types and       2 ions
 POSCAR, INCAR and KPOINTS ok, starting setup
 FFT: planning ...
 WAVECAR not read
 WARNING: random wavefunctions but no delay for mixing, default for NELMDL
 entering main loop
       N       E                     dE             d eps       ncg     rms          rms(c)
Total vdW correction in eV:      2.2302376
DAV:   1     0.680737551102E+02    0.68074E+02   -0.20265E+03   296   0.307E+02
DAV:   2    -0.710954964061E+01   -0.75183E+02   -0.74771E+02   304   0.104E+02
DAV:   3    -0.162382339612E+02   -0.91287E+01   -0.91174E+01   352   0.458E+01
DAV:   4    -0.163570257329E+02   -0.11879E+00   -0.11868E+00   272   0.481E+00
DAV:   5    -0.163576185286E+02   -0.59280E-03   -0.59279E-03   292   0.277E-01    0.692E+00
Total vdW correction in eV:      2.2495400
DAV:   6    -0.155520492392E+02    0.80557E+00   -0.50694E+00   200   0.121E+01    0.339E+00
Total vdW correction in eV:      2.2549333
DAV:   7    -0.154101592474E+02    0.14189E+00   -0.78449E-01   276   0.422E+00    0.171E+00
Total vdW correction in eV:      2.2642530
DAV:   8    -0.153765834827E+02    0.33576E-01   -0.16763E-01   216   0.250E+00    0.401E-01
Total vdW correction in eV:      2.2668326
DAV:   9    -0.153762640566E+02    0.31943E-03   -0.71876E-03   224   0.573E-01    0.104E-01
Total vdW correction in eV:      2.2677007
DAV:  10    -0.153775678407E+02   -0.13038E-02   -0.11460E-03   220   0.204E-01    0.311E-02
Total vdW correction in eV:      2.2685362
DAV:  11    -0.153789840389E+02   -0.14162E-02   -0.41326E-04   192   0.991E-02    0.161E-02
Total vdW correction in eV:      2.2687817
DAV:  12    -0.153797936369E+02   -0.80960E-03   -0.12010E-04   192   0.493E-02    0.786E-03
Total vdW correction in eV:      2.2688207
DAV:  13    -0.153812734160E+02   -0.14798E-02   -0.30018E-04   192   0.619E-02    0.388E-03
Total vdW correction in eV:      2.2687465
DAV:  14    -0.153816331671E+02   -0.35975E-03   -0.32522E-05   192   0.205E-02    0.236E-03
Total vdW correction in eV:      2.2686512
DAV:  15    -0.153819629709E+02   -0.32980E-03   -0.21146E-05   200   0.166E-02    0.172E-03
Total vdW correction in eV:      2.2686326
DAV:  16    -0.153820246585E+02   -0.61688E-04   -0.25931E-06   248   0.625E-03    0.105E-03
Total vdW correction in eV:      2.2686372
DAV:  17    -0.153820850051E+02   -0.60347E-04   -0.48912E-06   192   0.835E-03    0.744E-04
Total vdW correction in eV:      2.2686429
DAV:  18    -0.153820970465E+02   -0.12041E-04   -0.42121E-07   240   0.347E-03    0.374E-04
Total vdW correction in eV:      2.2686476
DAV:  19    -0.153821076489E+02   -0.10602E-04   -0.35727E-07   200   0.277E-03    0.223E-04
Total vdW correction in eV:      2.2686480
DAV:  20    -0.153821101287E+02   -0.24798E-05   -0.28279E-08   236   0.924E-04
Total vdW correction in eV:      2.2686460
   1 F= -.15382110E+02 E0= -.15382110E+02  d E =-.153821E+02
 BRION: g(F)=  0.109E+00 g(S)=  0.000E+00
 bond charge predicted
       N       E                     dE             d eps       ncg     rms          rms(c)
Total vdW correction in eV:      2.2787741
DAV:   1    -0.150216379688E+02    0.36047E+00   -0.27340E+01   200   0.409E+01    0.159E+00
Total vdW correction in eV:      2.2759242
DAV:   2    -0.149979839462E+02    0.23654E-01   -0.48820E-01   216   0.495E+00    0.875E-01
Total vdW correction in eV:      2.2726563
DAV:   3    -0.149846085590E+02    0.13375E-01   -0.65863E-02   292   0.174E+00    0.288E-01
Total vdW correction in eV:      2.2718048
DAV:   4    -0.149843190762E+02    0.28948E-03   -0.80591E-03   240   0.479E-01    0.135E-01
Total vdW correction in eV:      2.2713320
DAV:   5    -0.149850884746E+02   -0.76940E-03   -0.12437E-03   240   0.216E-01    0.486E-02
Total vdW correction in eV:      2.2709371
DAV:   6    -0.149856150610E+02   -0.52659E-03   -0.19484E-04   236   0.981E-02    0.145E-02
Total vdW correction in eV:      2.2709057
DAV:   7    -0.149859127530E+02   -0.29769E-03   -0.46156E-05   244   0.375E-02    0.841E-03
Total vdW correction in eV:      2.2708460
DAV:   8    -0.149862510788E+02   -0.33833E-03   -0.42002E-05   232   0.298E-02    0.473E-03
Total vdW correction in eV:      2.2708446
DAV:   9    -0.149865488155E+02   -0.29774E-03   -0.46015E-05   216   0.272E-02    0.227E-03
Total vdW correction in eV:      2.2708700
DAV:  10    -0.149866682938E+02   -0.11948E-03   -0.13679E-05   232   0.151E-02    0.106E-03
Total vdW correction in eV:      2.2708900
DAV:  11    -0.149867156708E+02   -0.47377E-04   -0.44289E-06   224   0.805E-03    0.516E-04
Total vdW correction in eV:      2.2709061
DAV:  12    -0.149867335844E+02   -0.17914E-04   -0.75103E-07   224   0.385E-03    0.400E-04
Total vdW correction in eV:      2.2709100
DAV:  13    -0.149867392926E+02   -0.57082E-05   -0.23605E-07   208   0.202E-03
Total vdW correction in eV:      2.2709093
   2 F= -.14986739E+02 E0= -.14986739E+02  d E =0.395371E+00
 BRION: g(F)=  0.563E+01 g(S)=  0.000E+00 retain N=  1 mean eig= 0.12
 eig:   0.122
 bond charge predicted
       N       E                     dE             d eps       ncg     rms          rms(c)
Total vdW correction in eV:      2.2623554
DAV:   1    -0.153944414433E+02   -0.40771E+00   -0.20662E+01   200   0.358E+01    0.129E+00
Total vdW correction in eV:      2.2646116
DAV:   2    -0.153996442419E+02   -0.52028E-02   -0.47193E-01   208   0.487E+00    0.835E-01
Total vdW correction in eV:      2.2668222
DAV:   3    -0.153848448026E+02    0.14799E-01   -0.39568E-02   256   0.139E+00    0.303E-01
Total vdW correction in eV:      2.2679233
DAV:   4    -0.153838486755E+02    0.99613E-03   -0.63727E-03   216   0.542E-01    0.988E-02
Total vdW correction in eV:      2.2683352
DAV:   5    -0.153842541425E+02   -0.40547E-03   -0.42166E-04   208   0.152E-01    0.415E-02
Total vdW correction in eV:      2.2687280
DAV:   6    -0.153847139610E+02   -0.45982E-03   -0.87779E-05   212   0.756E-02    0.115E-02
Total vdW correction in eV:      2.2688066
DAV:   7    -0.153851529605E+02   -0.43900E-03   -0.32720E-05   212   0.283E-02    0.587E-03
Total vdW correction in eV:      2.2688803
DAV:   8    -0.153856347122E+02   -0.48175E-03   -0.50263E-05   204   0.265E-02    0.385E-03
Total vdW correction in eV:      2.2688815
DAV:   9    -0.153860282670E+02   -0.39355E-03   -0.54747E-05   204   0.281E-02    0.153E-03
Total vdW correction in eV:      2.2688728
DAV:  10    -0.153861060762E+02   -0.77809E-04   -0.64351E-06   224   0.102E-02    0.865E-04
Total vdW correction in eV:      2.2688609
DAV:  11    -0.153861637111E+02   -0.57635E-04   -0.46840E-06   200   0.804E-03    0.450E-04
Total vdW correction in eV:      2.2688575
DAV:  12    -0.153861785138E+02   -0.14803E-04   -0.48659E-07   224   0.295E-03    0.319E-04
Total vdW correction in eV:      2.2688538
DAV:  13    -0.153861906583E+02   -0.12144E-04   -0.57598E-07   208   0.270E-03    0.160E-04
Total vdW correction in eV:      2.2688542
DAV:  14    -0.153861940086E+02   -0.33503E-05   -0.76019E-08   236   0.112E-03
Total vdW correction in eV:      2.2688550
   3 F= -.15386194E+02 E0= -.15386194E+02  d E =-.399455E+00
 BRION: g(F)=  0.149E-01 g(S)=  0.000E+00 retain N=  1 mean eig= 0.13
 eig:   0.129
 bond charge predicted
       N       E                     dE             d eps       ncg     rms          rms(c)
Total vdW correction in eV:      2.2684014
DAV:   1    -0.153868497342E+02   -0.65908E-03   -0.63017E-02   212   0.200E+00    0.796E-02
Total vdW correction in eV:      2.2685456
DAV:   2    -0.153867849638E+02    0.64770E-04   -0.13700E-03   208   0.263E-01    0.464E-02
Total vdW correction in eV:      2.2686874
DAV:   3    -0.153867483577E+02    0.36606E-04   -0.16875E-04   228   0.904E-02    0.134E-02
Total vdW correction in eV:      2.2687330
DAV:   4    -0.153867544724E+02   -0.61146E-05   -0.74281E-06   224   0.217E-02
Total vdW correction in eV:      2.2687584
   4 F= -.15386754E+02 E0= -.15386754E+02  d E =-.560464E-03
 BRION: g(F)=  0.243E-02 g(S)=  0.000E+00 retain N=  1 mean eig= 0.09
 eig:   0.092
 bond charge predicted
       N       E                     dE             d eps       ncg     rms          rms(c)
Total vdW correction in eV:      2.2688890
DAV:   1    -0.153868765664E+02   -0.12821E-03   -0.52603E-03   200   0.577E-01    0.228E-02
Total vdW correction in eV:      2.2688518
DAV:   2    -0.153868726209E+02    0.39455E-05   -0.11848E-04   216   0.770E-02    0.133E-02
Total vdW correction in eV:      2.2688173
DAV:   3    -0.153868775018E+02   -0.48809E-05   -0.13295E-05   220   0.257E-02
Total vdW correction in eV:      2.2688056
   5 F= -.15386878E+02 E0= -.15386878E+02  d E =-.123029E-03
 BRION: g(F)=  0.469E-06 g(S)=  0.000E+00 retain N=  1 mean eig= 0.09
 eig:   0.091
 reached required accuracy - stopping structural energy minimisation
--------------------------------------------------------
>>>  Job finished at Thu Oct 24 15:40:14 EDT 2019
